{
  "response_timestamp": "2020-04-23T09:07:12Z",
  "data": [
    {
      "box_id": "1",
      "accumulated_energy": {
        "from_timestamp": "2020-03-21T09:07:12Z",
        "to_timestamp": "2020-04-23T09:07:12Z",
        "active_energy": 269547,
        "reactive_energy": 336,
        "apparent_energy": 269549,
        "time_active": 2138451
      }
    }
  ]
}
