{
  "response_timestamp": "2020-04-23T09:07:14Z",
  "data": [
    {
      "device_id": "1",
      "accumulated_energy": {
        "from_timestamp": "2020-03-21T09:07:14Z",
        "to_timestamp": "2020-04-23T09:07:14Z",
        "active_energy": 14583,
        "reactive_energy": 153,
        "apparent_energy": 14584,
        "time_active": 1234789
      }
    }
  ]
}
