{
  "response_timestamp": "2020-04-23T09:07:06Z",
  "data": [
    {
      "box_id": "1",
      "current_power": {
        "measurement_timestamp": "2020-04-23T09:07:06Z",
        "active_power": 22.8413,
        "apparent_power": 0.241,
        "active_devices": 12
      },
      "last_time_active": null
    }
  ]
}
