{
  "response_timestamp": "2020-04-23T09:07:17Z",
  "data": [
    {
      "device_id": "1",
      "maximum_values": {
        "from_timestamp": "2020-03-21T09:07:17Z",
        "to_timestamp": "2020-04-23T09:07:17Z",
        "active_power": 2084,
        "apparent_power": 2085,
        "reactive_power": 5,
        "max_peak_current": 2.4,
        "min_power_factor": 0.89
      }
    },
    {
      "device_id": "2",
      "maximum_values": {
        "from_timestamp": "2020-03-21T09:07:17Z",
        "to_timestamp": "2020-04-23T09:07:17Z",
        "active_power": 1721,
        "apparent_power": 1854,
        "reactive_power": 21,
        "max_peak_current": 5.1,
        "min_power_factor": 0.85
      }
    }
  ]
}
